Importance of open source
…
long_data <- long_data %>%
  mutate(
    importance_area = recode(
      importance_area,
      "importance_opensrc_1" = "Research",
      "importance_opensrc_2" = "Teaching",
      "importance_opensrc_3" = "Learning",
      "importance_opensrc_4" = "Professional Development",
      "importance_opensrc_5" = "Job"
    )
  )
long_data

# A tibble: 1,660 × 3
   job_category importance_area          importance_level    
   <chr>        <chr>                    <chr>               
 1 Faculty      Research                 Very important      
 2 Faculty      Teaching                 Very important      
 3 Faculty      Learning                 Very important      
 4 Faculty      Professional Development Very important      
 5 Faculty      Job                      Very important      
 6 Post-Doc     Research                 Very important      
 7 Post-Doc     Teaching                 Moderately important
 8 Post-Doc     Learning                 Important           
 9 Post-Doc     Professional Development Important           
10 Post-Doc     Job                      Non-applicable      
# ℹ 1,650 more rows
…
long_data$importance_level <- factor(
  long_data$importance_level,
  levels = c(
    "Very important",
    "Important",
    "Moderately important",
    "Slightly important",
    "Not at all important",
    "Non-applicable"
  ),
  ordered = TRUE
)
long_data

# A tibble: 1,470 × 3
   job_category importance_area          importance_level    
   <chr>        <chr>                    <ord>               
 1 Faculty      Research                 Very important      
 2 Faculty      Teaching                 Very important      
 3 Faculty      Learning                 Very important      
 4 Faculty      Professional Development Very important      
 5 Faculty      Job                      Very important      
 6 Post-Doc     Research                 Very important      
 7 Post-Doc     Teaching                 Moderately important
 8 Post-Doc     Learning                 Important           
 9 Post-Doc     Professional Development Important           
10 Post-Doc     Job                      Non-applicable      
# ℹ 1,460 more rows
…
